{
  "version": "tree-0.1",
  "tree": {
    "id": "App",
    "path": "",
    "children": {
      "Tree": {
        "id": "Tree",
        "path": "Tree",
        "constructInfo": {
          "fqn": "@aws-cdk/core.Construct",
          "version": "1.105.0"
        }
      },
      "dev-kinesis-redeployment-error-my-stack": {
        "id": "dev-kinesis-redeployment-error-my-stack",
        "path": "dev-kinesis-redeployment-error-my-stack",
        "children": {
          "fiorCoreLedger": {
            "id": "fiorCoreLedger",
            "path": "dev-kinesis-redeployment-error-my-stack/fiorCoreLedger",
            "attributes": {
              "aws:cdk:cloudformation:type": "AWS::QLDB::Ledger",
              "aws:cdk:cloudformation:props": {
                "permissionsMode": "ALLOW_ALL",
                "deletionProtection": false,
                "name": "core-ledger"
              }
            },
            "constructInfo": {
              "fqn": "@aws-cdk/aws-qldb.CfnLedger",
              "version": "1.105.0"
            }
          },
          "KinesisDataStreamForQldbStreaming": {
            "id": "KinesisDataStreamForQldbStreaming",
            "path": "dev-kinesis-redeployment-error-my-stack/KinesisDataStreamForQldbStreaming",
            "children": {
              "Resource": {
                "id": "Resource",
                "path": "dev-kinesis-redeployment-error-my-stack/KinesisDataStreamForQldbStreaming/Resource",
                "attributes": {
                  "aws:cdk:cloudformation:type": "AWS::Kinesis::Stream",
                  "aws:cdk:cloudformation:props": {
                    "shardCount": 1,
                    "name": "kinesis-stream",
                    "retentionPeriodHours": 24,
                    "streamEncryption": {
                      "Fn::If": [
                        "AwsCdkKinesisEncryptedStreamsUnsupportedRegions",
                        {
                          "Ref": "AWS::NoValue"
                        },
                        {
                          "EncryptionType": "KMS",
                          "KeyId": "alias/aws/kinesis"
                        }
                      ]
                    }
                  }
                },
                "constructInfo": {
                  "fqn": "@aws-cdk/aws-kinesis.CfnStream",
                  "version": "1.105.0"
                }
              }
            },
            "constructInfo": {
              "fqn": "@aws-cdk/aws-kinesis.Stream",
              "version": "1.105.0"
            }
          },
          "AwsCdkKinesisEncryptedStreamsUnsupportedRegions": {
            "id": "AwsCdkKinesisEncryptedStreamsUnsupportedRegions",
            "path": "dev-kinesis-redeployment-error-my-stack/AwsCdkKinesisEncryptedStreamsUnsupportedRegions",
            "constructInfo": {
              "fqn": "@aws-cdk/core.CfnCondition",
              "version": "1.105.0"
            }
          },
          "QldbStreamRole": {
            "id": "QldbStreamRole",
            "path": "dev-kinesis-redeployment-error-my-stack/QldbStreamRole",
            "children": {
              "Resource": {
                "id": "Resource",
                "path": "dev-kinesis-redeployment-error-my-stack/QldbStreamRole/Resource",
                "attributes": {
                  "aws:cdk:cloudformation:type": "AWS::IAM::Role",
                  "aws:cdk:cloudformation:props": {
                    "assumeRolePolicyDocument": {
                      "Statement": [
                        {
                          "Action": "sts:AssumeRole",
                          "Effect": "Allow",
                          "Principal": {
                            "Service": "qldb.amazonaws.com"
                          }
                        }
                      ],
                      "Version": "2012-10-17"
                    },
                    "description": "Role used by QLDB to stream data into Kinesis Data Stream instance"
                  }
                },
                "constructInfo": {
                  "fqn": "@aws-cdk/aws-iam.CfnRole",
                  "version": "1.105.0"
                }
              },
              "DefaultPolicy": {
                "id": "DefaultPolicy",
                "path": "dev-kinesis-redeployment-error-my-stack/QldbStreamRole/DefaultPolicy",
                "children": {
                  "Resource": {
                    "id": "Resource",
                    "path": "dev-kinesis-redeployment-error-my-stack/QldbStreamRole/DefaultPolicy/Resource",
                    "attributes": {
                      "aws:cdk:cloudformation:type": "AWS::IAM::Policy",
                      "aws:cdk:cloudformation:props": {
                        "policyDocument": {
                          "Statement": [
                            {
                              "Action": [
                                "kinesis:ListShards",
                                "kinesis:PutRecord",
                                "kinesis:PutRecords"
                              ],
                              "Effect": "Allow",
                              "Resource": {
                                "Fn::GetAtt": [
                                  "KinesisDataStreamForQldbStreaming3DF42A3E",
                                  "Arn"
                                ]
                              }
                            },
                            {
                              "Action": [
                                "kinesis:DescribeStreamSummary",
                                "kinesis:GetRecords",
                                "kinesis:GetShardIterator",
                                "kinesis:ListShards",
                                "kinesis:SubscribeToShard"
                              ],
                              "Effect": "Allow",
                              "Resource": {
                                "Fn::GetAtt": [
                                  "KinesisDataStreamForQldbStreaming3DF42A3E",
                                  "Arn"
                                ]
                              }
                            },
                            {
                              "Action": "kinesis:DescribeStream",
                              "Effect": "Allow",
                              "Resource": {
                                "Fn::GetAtt": [
                                  "KinesisDataStreamForQldbStreaming3DF42A3E",
                                  "Arn"
                                ]
                              }
                            }
                          ],
                          "Version": "2012-10-17"
                        },
                        "policyName": "QldbStreamRoleDefaultPolicy46B3C16E",
                        "roles": [
                          {
                            "Ref": "QldbStreamRoleCDC39B12"
                          }
                        ]
                      }
                    },
                    "constructInfo": {
                      "fqn": "@aws-cdk/aws-iam.CfnPolicy",
                      "version": "1.105.0"
                    }
                  }
                },
                "constructInfo": {
                  "fqn": "@aws-cdk/aws-iam.Policy",
                  "version": "1.105.0"
                }
              }
            },
            "constructInfo": {
              "fqn": "@aws-cdk/aws-iam.Role",
              "version": "1.105.0"
            }
          },
          "qldbCoreLedgerStream": {
            "id": "qldbCoreLedgerStream",
            "path": "dev-kinesis-redeployment-error-my-stack/qldbCoreLedgerStream",
            "attributes": {
              "aws:cdk:cloudformation:type": "AWS::QLDB::Stream",
              "aws:cdk:cloudformation:props": {
                "inclusiveStartTime": "2021-06-09T09:17:30.931Z",
                "kinesisConfiguration": {
                  "aggregationEnabled": true,
                  "streamArn": {
                    "Fn::GetAtt": [
                      "KinesisDataStreamForQldbStreaming3DF42A3E",
                      "Arn"
                    ]
                  }
                },
                "ledgerName": "core-ledger",
                "roleArn": {
                  "Fn::GetAtt": [
                    "QldbStreamRoleCDC39B12",
                    "Arn"
                  ]
                },
                "streamName": "qldb-stream"
              }
            },
            "constructInfo": {
              "fqn": "@aws-cdk/aws-qldb.CfnStream",
              "version": "1.105.0"
            }
          },
          "CDKMetadata": {
            "id": "CDKMetadata",
            "path": "dev-kinesis-redeployment-error-my-stack/CDKMetadata",
            "children": {
              "Default": {
                "id": "Default",
                "path": "dev-kinesis-redeployment-error-my-stack/CDKMetadata/Default",
                "constructInfo": {
                  "fqn": "@aws-cdk/core.CfnResource",
                  "version": "1.105.0"
                }
              }
            },
            "constructInfo": {
              "fqn": "@aws-cdk/core.Construct",
              "version": "1.105.0"
            }
          }
        },
        "constructInfo": {
          "fqn": "@aws-cdk/core.Stack",
          "version": "1.105.0"
        }
      }
    },
    "constructInfo": {
      "fqn": "@aws-cdk/core.App",
      "version": "1.105.0"
    }
  }
}